InstanceName,InstanceTruth,CategoryID,Blue,Canada,Canadians,Cold,Consumer,Control,Custom,Floor,Green,Information,Ipod,January,Keys,Leather,Lexus,October,Pictures,Prius,Repair,Satellite,Service,Sienna,Sunroof,System,THIS,Tank,Traction,USA,Ultra,Vehicle,Venza,accelerator,access,accessory,across,afraid,ahead,altogether,approximately,badge,base,begin,body,broken,bulletin,call,camshaft,cell,climb,comment,company,compatible,conditioning,confirm,conflict,consist,continue,control,convenient,coordinate,custom,damn,dashboard,demand,depress,differently,disable,disc,discount,driver,driveway,dry,easily,effort,enjoy,ever,every,everything,excess,exhibit,extra,fit,fly,folk,force,full,gas,gear,glove,hour,however,hundred,impact,impress,inner,insurance,intend,interested,interface,last,latest,lead,leather,less,link,location,lose,major,manager,many,market,mention,mileage,mode,molding,morning,move,must,near,night,offer,office,older,once,onto,otherwise,passenger,pedal,perfectly,play,plus,pocket,pop,pous,powertrain,present,prevent,pricing,print,procedure,provide,quality,quickly,quote,race,rapidly,reality,realize,reasonable,record,reduce,refill,regardless,remote,request,rest,result,reverse,review,rim,rule,savings,scratch,second,seconds,selector,send,sensor,several,shifter,short,silver,size,slow,smart,solve,sometimes,speak,spring,statement,sunroof,swap,taillight,tank,throughout,title,touch,toyotanation,trip,trunk,tsb,upward,vsc,walk,warn,website,whole,window,wondering,wood
Camry:2008,6,1,1,1,0,1,1,0,1,0,0,1,0,1,0,1,2,0,0,1,1,0,0,0,0,1,0,0,0,1,0,1,0,0,1,1,1,1,1,0,0,0,1,1,2,1,0,2,0,0,1,1,1,0,1,1,1,0,1,1,0,0,1,1,1,0,0,0,1,0,0,2,1,0,1,1,1,1,1,1,0,0,1,1,1,1,1,1,2,1,1,1,1,1,0,0,1,1,0,1,0,1,1,1,1,1,1,1,1,1,1,1,1,1,2,0,0,1,1,1,1,1,1,1,1,0,1,0,1,1,0,1,1,0,1,0,0,0,0,1,1,1,1,0,1,1,1,0,1,0,0,1,1,0,0,1,1,1,1,1,0,1,1,1,1,0,1,0,1,0,1,1,1,1,1,1,1,1,1,0,1,1,0,1,0,0,0,0,1,0,1,1,1,1,0,0,0,1,1,1,0,1
Camry:2009,8,1,1,1,1,1,1,1,1,0,1,1,2,0,0,1,1,1,1,1,5,1,1,1,0,8,0,1,1,1,1,1,1,2,2,1,1,1,1,0,1,0,2,1,1,1,1,3,2,1,0,1,1,1,0,1,1,1,1,3,1,0,1,1,1,1,1,0,1,3,1,2,1,0,1,0,0,1,1,2,1,1,1,1,0,1,1,1,3,3,1,2,2,0,0,1,0,1,1,1,1,2,1,1,1,2,1,2,1,1,2,2,1,1,1,2,1,2,1,1,1,1,1,0,1,1,1,1,1,1,1,2,1,1,1,1,1,1,1,0,0,2,2,1,1,1,1,0,0,1,1,1,1,0,1,1,1,1,1,1,1,1,0,1,1,1,1,1,1,1,1,1,1,0,2,0,1,1,1,1,0,1,1,1,1,1,1,1,1,0,1,1,1,1,1,1,1,1,1,2,0,0
Camry:2006,3,0,0,0,0,0,0,0,0,0,0,0,0,0,0,0,0,0,0,0,0,0,0,0,0,0,0,0,0,0,0,0,0,0,0,0,0,0,0,0,0,0,0,0,0,0,0,0,0,0,0,0,0,0,0,0,0,0,0,0,0,0,0,0,0,0,0,0,0,0,0,0,0,0,0,0,0,1,0,1,0,0,0,0,0,0,0,0,0,0,0,0,0,0,0,0,0,0,0,0,0,0,0,0,0,0,0,0,0,0,0,0,0,0,0,0,0,0,0,0,0,0,0,0,0,0,0,0,0,0,0,0,0,0,0,0,0,0,0,0,0,0,0,0,0,0,0,0,0,0,0,0,0,0,0,0,0,0,0,0,0,0,0,0,0,0,0,0,0,0,0,0,0,0,0,0,0,0,0,0,0,0,0,0,0,0,0,0,0,0,0,0,0,0,0,0,0,0,0,0,0,0
Camry:2007,7,1,1,1,1,0,1,0,1,1,1,0,0,1,1,1,1,1,1,2,1,0,2,0,1,1,1,0,0,0,0,1,0,1,1,1,1,1,1,1,0,1,1,0,1,1,0,2,0,1,1,1,2,1,1,1,0,1,1,2,1,1,1,1,0,0,1,1,1,1,1,1,1,1,1,1,1,1,2,1,0,0,2,1,0,1,1,2,8,1,1,1,1,1,1,0,1,1,1,1,1,3,0,1,2,2,1,1,2,1,1,1,1,1,4,1,1,1,1,2,1,1,2,1,1,2,1,1,2,1,1,1,1,1,1,0,1,0,0,1,1,0,1,1,1,1,1,0,1,1,0,1,1,1,1,1,1,1,1,1,2,1,1,0,1,1,1,0,2,1,0,5,2,1,2,1,1,1,1,1,2,1,1,6,1,3,0,1,1,1,3,2,0,0,1,1,1,1,1,1,0,1
4Runner:2010,5,1,0,1,0,0,0,1,0,0,0,0,0,0,0,0,1,1,0,0,0,0,0,1,1,1,0,0,0,0,0,0,1,0,1,0,0,1,0,1,1,0,1,1,1,0,1,1,0,0,0,0,1,1,0,1,0,0,1,1,0,0,0,0,1,1,0,0,1,0,0,1,1,1,1,1,1,1,1,1,0,0,0,1,1,1,1,1,1,1,0,1,1,0,1,1,1,1,1,1,0,1,1,1,1,1,1,0,1,1,0,1,1,1,1,1,1,1,1,1,0,1,1,1,1,1,0,1,1,0,1,1,1,0,1,0,0,1,1,1,0,0,1,1,1,1,0,1,0,1,1,0,1,0,0,0,0,1,1,0,2,1,1,0,0,1,0,1,1,2,1,0,1,1,1,1,0,0,1,1,1,0,1,0,0,1,1,1,1,1,1,0,1,0,0,1,1,0,1,1,1,1
Camry:2010,8,1,1,1,0,1,1,1,0,1,0,0,1,1,2,1,2,1,1,2,0,1,2,1,0,1,1,1,1,0,1,0,1,2,1,1,1,1,1,1,1,1,1,1,1,0,0,2,1,1,0,1,1,1,0,1,1,0,1,1,0,1,1,1,1,1,0,1,1,1,1,1,1,1,1,1,1,1,2,2,1,1,1,2,1,1,0,1,1,1,1,1,2,1,0,1,0,0,1,1,1,1,1,1,3,1,2,1,3,1,1,3,1,1,1,1,1,1,1,1,1,1,2,1,1,1,0,1,1,2,1,1,1,1,1,1,1,1,1,1,1,1,1,1,1,1,1,1,0,1,1,1,0,1,0,1,1,1,1,1,1,1,0,1,1,2,1,0,1,1,2,1,1,1,2,1,1,0,1,1,1,0,1,1,1,1,1,1,1,0,1,2,1,1,0,1,0,1,1,1,1,0
Camry:2011,4,0,0,1,0,0,0,0,0,0,0,0,0,0,0,0,1,0,0,1,0,0,0,1,0,1,0,0,0,0,0,0,0,0,1,0,0,0,1,0,0,0,2,0,3,0,0,4,0,0,0,1,1,0,0,1,0,0,0,3,0,0,1,0,1,0,0,0,1,0,0,3,0,0,1,0,0,2,1,3,0,0,0,5,0,1,0,2,3,2,1,1,1,0,0,0,0,0,1,1,0,5,0,1,1,1,1,1,1,0,1,3,1,1,2,1,0,2,2,2,1,1,1,0,1,3,0,0,2,2,1,1,1,0,1,0,0,0,0,1,0,0,1,1,1,0,1,0,0,1,0,1,1,0,0,2,1,1,1,1,1,0,0,0,1,3,1,0,1,1,1,1,1,1,3,1,1,0,1,0,1,0,1,1,0,1,0,1,1,0,2,3,1,0,0,1,0,2,3,4,0,0
Camry:2012,5,1,5,15,1,3,3,4,3,1,2,1,1,3,1,2,11,3,2,17,1,2,10,2,2,13,2,1,1,3,2,7,3,2,6,2,8,2,3,1,2,3,27,7,16,4,1,43,1,6,3,12,8,6,2,7,1,2,3,31,1,2,6,2,5,4,2,2,4,1,2,52,6,3,8,1,10,17,36,26,1,2,13,35,2,7,4,21,50,12,5,17,32,2,2,2,2,9,2,8,4,54,4,26,31,28,21,9,14,6,8,29,12,14,34,21,6,13,16,13,12,20,23,1,8,22,6,5,34,15,4,24,8,2,14,2,2,6,5,6,3,1,12,18,4,12,5,2,1,9,3,3,8,2,3,19,4,11,11,12,8,26,1,1,15,20,8,1,19,12,16,7,13,6,23,11,11,3,14,4,15,1,14,7,3,19,2,7,19,1,46,47,5,1,1,4,5,8,13,37,3,2
4Runner:2013,0,0,0,0,0,0,0,0,0,0,0,0,0,0,0,0,0,0,0,0,0,0,0,0,0,0,0,0,0,0,0,0,0,0,0,1,0,0,0,0,0,0,0,0,0,0,0,0,0,0,0,0,1,0,0,0,0,0,0,0,0,0,0,0,0,0,0,0,0,0,0,0,0,0,0,0,0,0,0,0,0,0,0,0,0,0,0,0,0,0,0,0,0,0,0,0,0,0,0,0,0,0,0,0,0,0,0,0,0,0,0,0,0,0,0,0,0,0,0,0,0,0,0,0,1,0,0,0,0,0,0,0,0,0,0,0,0,0,0,0,0,0,0,0,0,0,0,0,0,0,0,0,0,0,0,0,0,0,0,0,0,0,0,0,0,0,0,0,0,0,0,0,0,0,0,0,0,0,0,0,0,0,0,0,0,0,0,0,0,0,0,0,0,0,0,0,0,0,0,0,0,0
Camry:2013,4,0,1,3,0,1,2,2,1,0,0,0,0,2,0,1,3,2,0,6,1,0,3,0,0,6,0,0,0,0,0,1,1,2,5,2,6,1,3,0,2,0,7,4,10,0,0,8,0,0,0,9,4,5,0,2,0,0,3,19,0,0,1,1,2,1,0,0,3,1,2,20,0,1,4,0,5,10,15,11,0,0,6,13,0,3,2,6,18,7,1,6,12,1,0,0,1,2,0,2,0,21,1,20,9,12,11,0,4,4,3,12,5,5,17,8,3,5,5,6,5,5,6,0,3,11,3,1,12,6,0,16,7,0,4,0,0,1,2,2,1,0,8,7,4,5,0,0,0,5,0,3,3,0,0,7,1,2,6,3,8,9,2,0,10,6,4,0,9,7,3,3,7,1,14,3,4,1,7,1,10,0,10,2,1,4,0,2,10,0,18,11,1,1,0,1,2,8,3,10,0,0
Camry:2004,3,0,0,0,0,0,0,0,0,0,0,0,0,0,0,0,0,0,0,0,0,0,0,0,0,0,0,0,0,0,0,0,0,0,0,0,0,0,0,0,0,0,0,0,0,0,0,0,0,0,0,0,0,0,0,0,0,0,1,0,0,0,0,0,0,0,0,0,0,0,0,0,0,0,0,0,0,0,0,0,0,0,0,0,0,0,0,0,0,0,0,0,0,0,0,0,0,0,0,0,0,0,0,0,0,0,0,0,1,0,0,0,0,0,0,0,0,0,0,0,0,0,0,0,0,0,0,0,0,0,0,0,0,0,0,0,0,0,0,0,0,0,0,0,0,0,0,0,0,0,0,0,0,0,0,0,0,0,0,0,0,0,0,0,0,0,0,0,0,0,0,0,0,0,0,0,0,0,0,0,0,0,0,0,0,0,0,0,0,0,0,0,0,0,0,0,0,0,0,0,0,0
4Runner:2014,0,0,1,0,0,0,0,0,0,0,0,0,0,0,0,0,0,0,0,0,0,0,0,0,0,1,0,0,0,0,0,0,0,0,0,0,0,0,0,0,0,0,1,0,1,0,0,2,0,0,0,0,0,0,0,0,0,0,1,0,0,0,0,0,0,0,0,0,0,0,0,2,0,0,0,0,0,0,0,0,0,0,0,0,0,0,0,0,0,0,0,0,0,0,0,0,0,0,0,0,0,0,0,0,0,0,0,0,0,2,0,0,1,2,0,0,0,0,0,0,0,1,3,0,0,0,0,0,0,0,0,0,0,0,0,0,0,0,0,0,0,0,0,0,0,1,0,0,0,0,0,0,0,0,0,0,0,0,0,0,0,0,0,0,0,0,0,0,0,0,0,0,0,0,0,0,0,0,0,0,0,0,0,0,0,0,0,0,0,0,2,0,0,0,0,0,0,0,0,0,0,0
Camry:2014,2,0,0,0,0,0,1,0,0,0,0,0,0,0,0,1,1,0,0,0,0,0,0,0,0,4,0,0,0,0,0,0,0,0,0,0,1,1,0,0,0,0,7,3,2,0,0,17,0,1,0,0,4,1,0,2,1,0,3,3,0,0,0,0,0,0,0,0,1,0,0,9,1,0,3,0,2,6,13,7,0,0,5,18,1,14,0,6,16,3,0,7,9,0,0,0,0,1,0,4,4,19,1,12,8,10,13,1,3,2,1,12,3,3,20,0,0,3,6,4,2,5,12,0,3,8,0,3,9,0,0,5,3,0,2,0,0,0,0,0,0,0,4,5,0,2,2,0,0,1,0,2,1,0,0,5,1,2,1,0,5,8,0,0,0,6,1,0,19,0,1,3,4,4,11,5,2,0,9,1,6,3,2,14,0,5,1,1,8,0,6,10,0,0,0,0,0,6,5,6,0,3
Camry:2005,4,0,0,0,0,0,0,0,0,0,0,0,0,0,0,0,0,0,0,0,0,0,0,0,0,0,0,0,0,0,0,0,0,0,0,0,0,0,0,0,0,0,0,0,0,0,0,0,0,0,0,0,0,0,0,0,0,0,0,0,0,0,0,0,0,0,0,0,0,0,0,0,0,0,0,0,0,0,1,0,0,0,0,0,0,0,0,0,0,0,0,0,0,0,0,0,0,0,0,0,0,0,0,0,0,0,0,0,0,0,0,0,0,0,0,0,0,0,0,0,0,0,0,0,0,0,0,0,0,0,0,0,0,0,0,0,0,0,0,0,0,0,0,0,0,0,0,0,0,0,0,0,0,0,0,0,0,0,0,0,0,0,0,0,1,0,0,0,0,0,0,0,0,0,0,0,0,0,0,0,0,0,0,0,0,0,0,0,0,0,0,0,0,0,0,0,0,0,0,0,0,0
4Runner:2011,3,0,0,0,0,0,0,0,0,0,0,0,0,0,0,0,0,0,0,0,0,0,0,0,0,0,0,0,0,0,0,0,0,0,0,0,0,0,0,0,0,0,0,0,0,0,0,0,0,0,0,0,0,0,0,0,0,0,0,1,0,0,0,0,0,0,0,0,0,0,0,0,0,0,0,0,0,0,0,0,0,0,0,1,0,0,0,1,1,0,0,0,0,0,0,1,0,0,0,0,0,0,0,0,1,0,1,0,0,0,0,0,0,0,1,0,0,0,1,0,0,0,0,0,0,0,0,0,0,0,0,0,0,0,0,0,0,0,0,1,0,0,0,0,0,0,0,0,0,0,0,0,0,0,0,0,0,0,0,0,0,0,0,0,0,0,0,0,0,0,0,0,0,0,1,0,0,0,0,0,0,0,0,0,0,0,0,0,0,0,0,0,0,0,0,0,0,0,0,0,0,0
4Runner:2012,3,0,0,0,0,0,0,0,0,0,0,0,0,0,0,0,0,0,0,0,0,0,0,0,0,0,0,0,0,0,0,0,0,0,1,0,0,0,0,0,0,0,0,0,0,1,0,1,0,0,0,0,0,0,0,0,0,0,0,0,0,0,0,0,0,0,0,0,0,0,0,0,0,0,0,0,0,0,0,0,0,0,0,0,0,1,0,0,0,0,0,0,1,0,0,0,0,0,0,0,0,0,0,0,0,1,0,0,0,0,0,0,0,0,0,0,0,0,0,1,0,0,0,0,0,0,0,0,0,0,0,0,0,0,0,0,0,0,0,0,0,0,1,0,1,0,0,0,0,0,0,0,0,0,0,0,0,0,0,0,0,0,0,0,0,0,0,0,0,0,0,0,0,0,0,0,0,0,0,0,0,0,0,0,0,0,0,0,0,0,0,0,0,0,0,0,0,0,0,0,0,0
Camry:2003,1,0,0,0,0,0,0,0,0,0,0,0,0,0,0,0,0,0,0,0,0,0,0,0,0,0,0,0,0,0,0,0,0,0,0,0,0,0,0,0,0,0,0,0,0,0,0,0,0,0,0,0,0,0,0,0,0,0,0,0,0,0,0,0,0,0,0,0,0,0,0,0,0,0,0,0,0,0,0,0,0,0,0,0,0,0,0,0,0,0,0,0,0,0,0,0,0,0,0,0,0,0,0,0,0,0,0,0,0,0,0,0,0,0,0,0,0,0,0,0,0,0,0,0,0,0,0,0,0,0,0,1,0,0,0,0,0,0,0,0,0,0,0,0,0,0,0,0,0,0,0,0,0,0,0,0,0,0,0,0,0,0,0,0,0,0,0,0,0,0,0,0,0,0,0,0,0,0,0,0,0,0,0,0,0,0,0,0,0,0,0,0,0,0,0,0,0,0,0,0,0,0
4Runner:2003,3,0,0,0,0,0,0,0,0,0,0,0,0,0,0,0,0,0,0,0,0,0,0,0,0,0,0,0,0,0,0,0,0,0,0,0,0,0,0,0,0,0,0,0,0,0,0,0,0,0,0,0,0,0,0,0,0,0,0,0,0,0,0,0,0,0,0,0,0,0,0,0,0,0,0,0,0,0,0,0,0,0,0,0,0,0,0,0,0,0,0,0,0,0,0,0,0,0,0,0,0,0,0,0,0,0,0,0,0,0,0,0,0,0,0,0,0,0,0,0,0,0,0,0,0,0,0,0,0,0,0,0,0,0,0,0,0,0,0,0,0,0,0,0,0,0,0,0,0,0,0,0,0,0,0,0,0,0,0,0,0,0,0,0,0,0,0,0,0,0,0,0,0,0,0,0,0,0,0,0,0,0,0,0,0,0,0,0,0,0,0,0,0,0,0,0,0,0,0,0,0,0
4Runner:2009,5,1,0,0,0,0,0,0,0,0,0,0,0,0,0,0,0,0,0,0,0,0,0,0,0,0,0,0,0,0,0,0,0,0,0,0,0,0,0,0,0,0,0,0,0,0,0,1,0,0,0,0,0,0,0,0,0,0,0,0,0,0,0,0,0,0,0,0,0,0,0,0,0,0,0,0,0,0,0,0,0,0,0,0,0,0,0,0,0,0,0,0,0,0,0,0,0,0,0,0,0,0,0,0,0,0,0,0,0,0,0,0,0,0,0,0,0,0,0,0,0,0,0,0,0,0,0,0,0,0,0,0,0,0,0,0,0,0,0,0,0,0,0,0,0,0,0,0,0,0,0,0,0,0,0,0,0,0,0,0,0,0,0,0,0,0,0,0,0,0,0,0,0,0,0,0,0,0,0,0,0,0,0,0,0,0,0,0,0,0,0,0,0,0,0,0,0,1,0,0,0,0
4Runner:2008,3,0,0,0,0,0,0,0,0,0,0,0,0,0,0,0,0,0,0,0,0,0,0,0,0,0,0,0,0,0,0,0,0,0,0,0,0,0,0,0,0,0,0,0,0,0,0,0,0,0,0,0,0,0,0,0,0,0,0,0,0,0,0,0,0,0,0,0,0,0,0,0,0,0,0,0,0,0,0,0,0,0,0,0,0,0,0,0,0,0,0,0,0,0,0,0,0,0,0,1,0,1,0,1,0,0,0,0,0,0,0,1,0,0,0,0,0,0,0,0,0,0,0,0,0,0,0,1,0,0,0,0,0,0,0,0,0,0,0,0,0,0,0,0,0,0,0,0,0,0,0,0,0,0,0,0,0,0,0,3,0,0,0,0,0,0,0,0,0,0,0,0,0,0,0,0,0,0,0,0,0,0,0,0,0,0,0,0,1,0,0,0,0,0,0,0,0,0,0,0,0,0
